<svg width="100" height="100" viewBox="0 0 100 100" fill="none" xmlns="http://www.w3.org/2000/svg">
<circle cx="50" cy="49.999" r="45.2627" stroke="#6C492A"/>
<circle cx="50" cy="50" r="49" stroke="#926E4E" stroke-width="2"/>
<g clip-path="url(#clip0)">
<path d="M25.9488 72.0342C25.66 72.0342 25.4237 71.7975 25.4237 71.5082V39.9477C25.4237 39.7833 25.5025 39.6255 25.6337 39.5269L36.1348 31.6368C36.2267 31.571 36.3317 31.5316 36.4499 31.5316C36.5286 31.5316 36.6139 31.5513 36.6861 31.5842C36.8633 31.6762 36.9749 31.8603 36.9749 32.0576V38.8957L46.6359 31.6368C46.7278 31.571 46.8328 31.5316 46.951 31.5316C47.0297 31.5316 47.1151 31.5513 47.1872 31.5842C47.3645 31.6762 47.476 31.8603 47.476 32.0576V38.8957L57.137 31.6368C57.2289 31.571 57.3339 31.5316 57.4521 31.5316C57.5308 31.5316 57.6162 31.5513 57.6884 31.5842C57.8656 31.6762 57.9771 31.8603 57.9771 32.0576V39.4217H64.8029V26.7975C64.8029 26.5082 65.0391 26.2715 65.3279 26.2715H73.2037C73.4925 26.2715 73.7288 26.5082 73.7288 26.7975V71.5082C73.7288 71.7975 73.4925 72.0342 73.2037 72.0342H25.9488ZM26.4738 40.2107V70.9822H72.6787V27.3235H65.853V39.9477C65.853 40.237 65.6167 40.4737 65.3279 40.4737H57.4521C57.1633 40.4737 56.927 40.237 56.927 39.9477V33.1096L47.266 40.3685C47.1741 40.4408 47.0691 40.4737 46.9575 40.4737C46.8788 40.4737 46.7935 40.454 46.7213 40.4145C46.5375 40.3291 46.4259 40.1449 46.4259 39.9477V33.1096L36.7649 40.3685C36.673 40.4408 36.568 40.4737 36.4564 40.4737C36.3777 40.4737 36.2924 40.454 36.2136 40.4145C36.0364 40.3291 35.9248 40.1449 35.9248 39.9477V33.1096L26.4738 40.2107Z" fill="#926E4E"/>
<path d="M33.8245 48.3645C33.5357 48.3645 33.2994 48.1278 33.2994 47.8385C33.2994 47.5492 33.5357 47.3125 33.8245 47.3125H39.075C39.3638 47.3125 39.6001 47.5492 39.6001 47.8385C39.6001 48.1278 39.3638 48.3645 39.075 48.3645H33.8245Z" fill="#926E4E"/>
<path d="M46.9511 48.3645C46.6623 48.3645 46.426 48.1278 46.426 47.8385C46.426 47.5492 46.6623 47.3125 46.9511 47.3125H52.2016C52.4904 47.3125 52.7267 47.5492 52.7267 47.8385C52.7267 48.1278 52.4904 48.3645 52.2016 48.3645H46.9511Z" fill="#926E4E"/>
<path d="M33.8245 56.2532C33.5357 56.2532 33.2994 56.0165 33.2994 55.7272C33.2994 55.4379 33.5357 55.2012 33.8245 55.2012H39.075C39.3638 55.2012 39.6001 55.4379 39.6001 55.7272C39.6001 56.0165 39.3638 56.2532 39.075 56.2532H33.8245Z" fill="#926E4E"/>
<path d="M46.9511 56.2532C46.6623 56.2532 46.426 56.0165 46.426 55.7272C46.426 55.4379 46.6623 55.2012 46.9511 55.2012H52.2016C52.4904 55.2012 52.7267 55.4379 52.7267 55.7272C52.7267 56.0165 52.4904 56.2532 52.2016 56.2532H46.9511Z" fill="#926E4E"/>
<path d="M33.8245 64.1438C33.5357 64.1438 33.2994 63.9071 33.2994 63.6178C33.2994 63.3285 33.5357 63.0918 33.8245 63.0918H39.075C39.3638 63.0918 39.6001 63.3285 39.6001 63.6178C39.6001 63.9071 39.3638 64.1438 39.075 64.1438H33.8245Z" fill="#926E4E"/>
<path d="M46.9511 64.1438C46.6623 64.1438 46.426 63.9071 46.426 63.6178C46.426 63.3285 46.6623 63.0918 46.9511 63.0918H52.2016C52.4904 63.0918 52.7267 63.3285 52.7267 63.6178C52.7267 63.9071 52.4904 64.1438 52.2016 64.1438H46.9511Z" fill="#926E4E"/>
<path d="M60.0774 48.3645C59.7886 48.3645 59.5524 48.1278 59.5524 47.8385C59.5524 47.5492 59.7886 47.3125 60.0774 47.3125H65.328C65.6168 47.3125 65.853 47.5492 65.853 47.8385C65.853 48.1278 65.6168 48.3645 65.328 48.3645H60.0774Z" fill="#926E4E"/>
<path d="M60.0774 56.2532C59.7886 56.2532 59.5524 56.0165 59.5524 55.7272C59.5524 55.4379 59.7886 55.2012 60.0774 55.2012H65.328C65.6168 55.2012 65.853 55.4379 65.853 55.7272C65.853 56.0165 65.6168 56.2532 65.328 56.2532H60.0774Z" fill="#926E4E"/>
<path d="M60.0774 64.1438C59.7886 64.1438 59.5524 63.9071 59.5524 63.6178C59.5524 63.3285 59.7886 63.0918 60.0774 63.0918H65.328C65.6168 63.0918 65.853 63.3285 65.853 63.6178C65.853 63.9071 65.6168 64.1438 65.328 64.1438H60.0774Z" fill="#926E4E"/>
</g>
<defs>
<clipPath id="clip0">
<rect width="48.3051" height="45.7627" fill="white" transform="translate(25.4237 26.2715)"/>
</clipPath>
</defs>
</svg>
