<svg width="100" height="100" viewBox="0 0 100 100" fill="none" xmlns="http://www.w3.org/2000/svg">
<circle cx="50" cy="49.999" r="45.2627" stroke="#6C492A"/>
<circle cx="50" cy="50" r="49" stroke="#926E4E" stroke-width="2"/>
<g clip-path="url(#clip0)">
<path d="M23.4853 69.4925C23.1548 69.4925 22.8813 69.2141 22.8813 68.8778V44.5903C22.8813 44.254 23.1548 43.9756 23.4853 43.9756H40.5654V34.1284C40.5654 33.792 40.8389 33.5137 41.1693 33.5137H58.842C59.1725 33.5137 59.4459 33.792 59.4459 34.1284V54.4375H76.5261C76.8566 54.4375 77.13 54.7159 77.13 55.0523V68.8894C77.13 69.2257 76.8566 69.5041 76.5261 69.5041H23.4853V69.4925ZM59.4345 68.2747H75.9108V55.6554H59.4345V68.2747ZM41.7618 68.2747H58.2381V34.7431H41.7618V68.2747ZM24.0778 68.2747H40.554V45.2051H24.0778V68.2747Z" fill="#926E4E"/>
<path d="M49.9999 42.758C49.6695 42.758 49.396 42.4796 49.396 42.1433V37.9214C49.396 37.585 49.6695 37.3066 49.9999 37.3066C50.3303 37.3066 50.6038 37.585 50.6038 37.9214V42.1433C50.6038 42.4796 50.3303 42.758 49.9999 42.758Z" fill="#926E4E"/>
<path d="M30.2536 53.2189C29.9231 53.2189 29.6497 52.9405 29.6497 52.6042V48.3823C29.6497 48.0459 29.9231 47.7676 30.2536 47.7676C30.584 47.7676 30.8575 48.0459 30.8575 48.3823V52.6042C30.8461 52.9405 30.584 53.2189 30.2536 53.2189Z" fill="#926E4E"/>
<path d="M34.3897 53.2189C34.0592 53.2189 33.7858 52.9405 33.7858 52.6042V48.3823C33.7858 48.0459 34.0592 47.7676 34.3897 47.7676C34.7201 47.7676 34.9936 48.0459 34.9936 48.3823V52.6042C34.9936 52.9405 34.7201 53.2189 34.3897 53.2189Z" fill="#926E4E"/>
<path d="M63.5365 63.6701C63.2061 63.6701 62.9326 63.3917 62.9326 63.0554V58.8335C62.9326 58.4971 63.2061 58.2188 63.5365 58.2188C63.867 58.2188 64.1404 58.4971 64.1404 58.8335V63.0554C64.1404 63.4033 63.867 63.6701 63.5365 63.6701Z" fill="#926E4E"/>
<path d="M67.6842 63.6701C67.3538 63.6701 67.0803 63.3917 67.0803 63.0554V58.8335C67.0803 58.4971 67.3538 58.2188 67.6842 58.2188C68.0147 58.2188 68.2881 58.4971 68.2881 58.8335V63.0554C68.2767 63.4033 68.0147 63.6701 67.6842 63.6701Z" fill="#926E4E"/>
<path d="M71.8202 63.6701C71.4898 63.6701 71.2163 63.3917 71.2163 63.0554V58.8335C71.2163 58.4971 71.4898 58.2188 71.8202 58.2188C72.1507 58.2188 72.4241 58.4971 72.4241 58.8335V63.0554C72.4241 63.4033 72.1507 63.6701 71.8202 63.6701Z" fill="#926E4E"/>
<path d="M53.7716 30.8337C53.6691 30.8337 53.5779 30.8105 53.4868 30.7641L50.0001 28.8967L46.5134 30.7641C46.4222 30.8105 46.3311 30.8337 46.2285 30.8337C46.1032 30.8337 45.9779 30.7989 45.8753 30.7177C45.693 30.5785 45.6018 30.3465 45.636 30.1146L46.2969 26.1595L43.4711 23.3526C43.3116 23.1902 43.2432 22.9466 43.323 22.7263C43.3913 22.5059 43.585 22.3435 43.8129 22.3087L47.7098 21.7288L49.4531 18.1332C49.5671 17.9361 49.7722 17.7969 50.0001 17.7969C50.228 17.7969 50.4331 17.9361 50.5356 18.1332L52.279 21.7288L56.1758 22.3087C56.4037 22.3435 56.586 22.5059 56.6658 22.7263C56.7342 22.9466 56.6772 23.1902 56.5177 23.3526L53.6919 26.1479L54.3527 30.103C54.3869 30.335 54.2958 30.5669 54.1135 30.7061C54.0223 30.7873 53.897 30.8337 53.7716 30.8337ZM50.0001 27.5861C50.0912 27.5861 50.1938 27.6093 50.2849 27.6557L52.974 29.0939L52.4613 26.0435C52.4271 25.8463 52.4955 25.6491 52.6322 25.4983L54.8085 23.341L51.8004 22.9003C51.6067 22.8771 51.4358 22.7495 51.3446 22.5639L50.0001 19.7918L48.6555 22.5639C48.5644 22.7495 48.3935 22.8655 48.1998 22.9003L45.1916 23.341L47.368 25.4983C47.5047 25.6375 47.5731 25.8347 47.5389 26.0435L47.0261 29.0939L49.7152 27.6557C49.8064 27.6093 49.9089 27.5861 50.0001 27.5861Z" fill="#926E4E"/>
</g>
<defs>
<clipPath id="clip0">
<rect width="54.2373" height="51.6949" fill="white" transform="translate(22.8813 17.7969)"/>
</clipPath>
</defs>
</svg>
