<svg width="100" height="100" viewBox="0 0 100 100" fill="none" xmlns="http://www.w3.org/2000/svg">
<circle cx="50" cy="49.999" r="45.2627" stroke="#6C492A"/>
<circle cx="50" cy="50" r="49" stroke="#926E4E" stroke-width="2"/>
<g clip-path="url(#clip0)">
<path d="M47.4818 69.492C39.5365 69.492 33.3611 67.5703 32.6826 67.346L26.6941 67.3362C26.4581 67.3362 26.2712 67.1509 26.2712 66.9168V54.1577C26.2712 53.9236 26.4581 53.7383 26.6941 53.7383H32.7121C43.4206 53.7383 45.23 54.7918 46.8328 55.7185C48.0718 56.4403 49.1338 57.0549 54.5618 57.0549C54.9945 57.0549 55.4665 57.0549 55.9582 57.0451H55.968C56.3515 57.0451 57.3939 57.1134 58.1707 57.884C58.3084 58.0206 58.4362 58.1864 58.5542 58.3717L58.6722 58.5571L58.8885 58.4985C61.1797 57.8547 63.1857 57.0061 64.641 56.3818C66.3127 55.6697 67.5222 55.1527 68.3777 55.1527C68.7219 55.1527 68.9874 55.2307 69.2234 55.4063C69.9314 55.9428 70.0691 56.5379 70.0691 56.9476C70.0691 57.0744 70.0494 57.2109 70.0101 57.367L69.9019 57.8352L70.3739 57.7182C70.6787 57.6401 70.9442 57.6011 71.1704 57.6011C71.5441 57.6011 71.8391 57.6987 72.1046 57.923C72.7929 58.4888 72.9109 59.0936 72.8912 59.5033C72.8322 60.7616 71.4359 61.7566 71.2786 61.8736C64.8279 66.9363 56.8333 69.492 47.4818 69.492ZM33.1251 66.6144L33.3316 66.6729C34.8754 67.1411 40.4706 68.6531 47.4621 68.6531C56.6268 68.6531 64.4739 66.1462 70.7672 61.2006C70.8066 61.1713 72.0062 60.3324 72.0456 59.4642C72.0652 59.1423 71.8981 58.8497 71.5637 58.5668C71.4556 58.479 71.3179 58.44 71.1311 58.44C70.5411 58.44 69.4102 58.918 68.1122 59.4642C65.7522 60.4592 62.2122 61.9517 56.9317 62.9954C55.7418 63.4344 54.0997 63.6587 52.0052 63.6587C50.2155 63.6587 48.0817 63.5027 45.6528 63.1905C45.4266 63.1612 45.2595 62.9466 45.289 62.7223C45.3185 62.5174 45.4955 62.3614 45.7118 62.3614C48.1603 62.6735 50.2548 62.8296 52.0052 62.8296C54.0308 62.8296 55.5943 62.6247 56.6465 62.2151C58.1314 61.6298 58.1805 60.8494 58.1904 60.5958C58.2494 59.6496 58.0429 58.9375 57.5905 58.479C57.089 57.9815 56.4007 57.8938 56.086 57.884H56.0172C55.5157 57.8938 55.0437 57.8938 54.6012 57.8938C48.9175 57.8938 47.7572 57.2207 46.4198 56.4403C44.9546 55.5819 43.283 54.6162 33.4398 54.5772H33.1448V66.6144H33.1251ZM27.1071 66.4973H32.2794V54.5772H27.1071V66.4973ZM68.3482 55.9818C67.7681 55.9818 66.5585 56.4793 65.0344 57.1231C63.4905 57.7767 61.4747 58.6449 59.1737 59.2887L58.9279 59.3569L58.9672 59.6106C59.0164 59.9715 59.036 60.3031 59.0164 60.6348C59.0065 60.8396 58.9672 61.0445 58.8984 61.2396L58.7214 61.7566L59.2524 61.6298C63.0972 60.6738 65.8014 59.5423 67.7681 58.7034L68.2991 58.479L68.3581 58.4303C68.6826 58.1181 69.2332 57.5231 69.2332 56.9476C69.2332 56.6354 69.0661 56.3525 68.7219 56.0794C68.6039 56.0111 68.4859 55.9818 68.3482 55.9818Z" fill="#926E4E"/>
<path d="M50.6482 50.3244C50.5695 50.3244 50.5007 50.3049 50.4318 50.2659C49.9205 49.9537 38.0516 42.6768 38.0516 34.8828C38.0516 31.0688 41.1786 27.9766 45.0137 27.9766C47.0787 27.9766 49.1043 28.9325 50.422 30.542L50.6482 30.8249L50.8744 30.542C52.192 28.9227 54.2079 27.9668 56.2827 27.9668C60.1276 27.9668 63.2447 31.0688 63.2447 34.8731C63.2447 42.6768 51.3759 49.9537 50.8645 50.2561C50.7957 50.3049 50.7269 50.3244 50.6482 50.3244ZM45.0137 28.7959C41.631 28.7959 38.8875 31.5175 38.8875 34.8731C38.8875 41.4769 48.5537 48.0516 50.481 49.3099L50.6384 49.4172L50.7957 49.3099C52.7329 48.0613 62.3892 41.4769 62.3892 34.8731C62.3892 31.5175 59.6457 28.7959 56.263 28.7959C54.1095 28.7959 52.0937 29.947 50.9924 31.7906C50.9137 31.9272 50.7564 31.9662 50.6285 31.9662C50.5007 31.9662 50.3433 31.9174 50.2647 31.7906C49.183 29.947 47.1672 28.7959 45.0137 28.7959Z" fill="#926E4E"/>
</g>
<defs>
<clipPath id="clip0">
<rect width="46.6102" height="41.5254" fill="white" transform="translate(26.2712 27.9668)"/>
</clipPath>
</defs>
</svg>
